#category,name,price,reduced_price,description,workshops
weekly,Pass Complet,"150","120","Toute la programmation des soirées et journées ainsi que 7 stages : 1 par demi journée, du jeudi après-midi au dimanche après-midi.",7
weekly,Pass Mixte,"105","85","Toute la programmation des soirées et journées ainsi que 4 stages à répartir comme bon vous semble sur les 7 créneaux possibles, du jeudi après-midi au dimanche après-midi.",4
weekly,Pass Programmation,"50","40",Toute la programmation des soirées et journées.,0
"daily","Pas de forfait",0,0,"Je souhaite uniquement réserver des stages en ligne, j’achèterai mon forfait sur place.",0
unitary,4 Stages,"70","55",Bon pour quatre stages.,4
unitary,1 Stage,"20","15",Bon pour un stage.,1
